my_pro/led/rtl/led.vcd
$date
	Fri Sep 30 20:58:03 2022
$end
$version
	Icarus Verilog
$end
$timescale
	1ns
$end
$scope module tb_led $end
$var wire 1 ! led_out $end
$var reg 1 " key_in $end
$scope module led_inst $end
$var wire 1 " key_in $end
$var wire 1 ! led_out $end
$upscope $end
$upscope $end
$enddefinitions $end
$comment Show the parameter values. $end
$dumpall
$end
#0
$dumpvars
0"
0!
$end
#20
1!
1"
#80
0!
0"
#90
1!
1"
#110
0!
0"
#120
1!
1"
#140
0!
0"
#150
1!
1"
#160
0!
0"
#170
1!
1"
#180
0!
0"
#190
1!
1"
#210
0!
0"
#220
1!
1"
#230
0!
0"
#260
1!
1"
#270
0!
0"
#280
1!
1"
#320
0!
0"
#360
1!
1"
#370
0!
0"
#380
1!
1"
#430
0!
0"
#450
1!
1"
#480
0!
0"
#530
1!
1"
#540
0!
0"
#560
1!
1"
#580
0!
0"
#630
1!
1"
#680
0!
0"
#700
1!
1"
#730
0!
0"
#750
1!
1"
#770
0!
0"
#780
1!
1"
#800
0!
0"
#810
1!
1"
#840
0!
0"
#850
1!
1"
#870
0!
0"
#910
1!
1"
#930
0!
0"
#950
1!
1"
